name,latitude,longitude,type,color
Alavés,42.83707624,-2.688246667,Primera División,primary
Athletic Bilbao,43.263464,-2.948182,Primera División,primary
Atlético Madrid,40.401696,-3.720635,Primera División,primary
Barcelona,41.380868,2.122831,Primera División,primary
Celta de Vigo,42.211842,-8.739709,Primera División,primary
Eibar,43.181731,-2.475866,Primera División,primary
Espanyol,41.347849,2.075506,Primera División,primary
Getafe,40.325714,-3.714929,Primera División,primary
Granada,37.15291,-3.595758,Primera División,primary
Leganés,40.3404725,-3.760687709,Primera División,primary
Levante,39.494661,-0.363815,Primera División,primary
Mallorca,39.5899396,2.6300776,Primera División,primary
Osasuna,42.79667699,-1.637141258,Primera División,primary
Real Betis,37.356499,-5.981752,Primera División,primary
Real Madrid,40.453034,-3.688344,Primera División,primary
Real Sociedad,43.301368,-1.973626,Primera División,primary
Sevilla,37.384027,-5.970658,Primera División,primary
Valencia,39.474562,-0.358259,Primera División,primary
Valladolid,41.64458034,-4.761264324,Primera División,primary
Villarreal,39.944117,-0.103432,Primera División,primary
Albacete,38.98114641,-1.852113605,Segunda División,success
Alcorcón,40.33884922,-3.840467334,Segunda División,success
Almería,36.84003886,-2.435456514,Segunda División,success
Cádiz ,36.502778,-6.273056,Segunda División,success
Deportivo La Coruña,43.368705,-8.417511,Segunda División,success
Elche,38.26712921,-0.6632995605,Segunda División,success
Extremadura ,38.684411,-6.414606,Segunda División,success
Fuenlabrada ,40.29116,-3.82671,Segunda División,success
Girona,41.96119541,2.828495353,Segunda División,success
Huesca,42.13189146,-0.4245990515,Segunda División,success
Las Palmas,28.100364,-15.456746,Segunda División,success
Lugo,43.00334468,-7.570899725,Segunda División,success
Málaga,36.734194,-4.426587,Segunda División,success
Mirandés,42.68082643,-2.935431004,Segunda División,success
Numancia,41.75460202,-2.467997074,Segunda División,success
Oviedo,43.36076159,-5.870261192,Segunda División,success
Ponferradina,42.55741121,-6.599982977,Segunda División,success
Racing Santander,43.476389,-3.793333,Segunda División,success
Rayo Vallecano,40.391842,-3.658592,Segunda División,success
Sporting Gijón,43.536199,-5.637467,Segunda División,success
Tenerife,28.4632822,-16.26051664,Segunda División,success
Zaragoza,41.63646617,-0.9018284082,Segunda División,success
